D:\haufe\workspace\service-template\src\main\java\com\haufe\demo\web\dto\request\AppRequest.java
D:\haufe\workspace\service-template\src\main\java\com\haufe\demo\web\exception\ResourceConflictException.java
D:\haufe\workspace\service-template\src\main\java\com\haufe\demo\web\dto\result\AppListResult.java
D:\haufe\workspace\service-template\src\main\java\com\haufe\demo\domain\AppDomain.java
D:\haufe\workspace\service-template\src\main\java\com\haufe\demo\web\exception\ResourceException.java
D:\haufe\workspace\service-template\src\main\java\com\haufe\demo\web\exception\ResourceNotFoundException.java
D:\haufe\workspace\service-template\src\main\java\com\haufe\demo\web\dto\AppDTO.java
D:\haufe\workspace\service-template\src\main\java\com\haufe\demo\web\dto\messages\HttpMessages.java
D:\haufe\workspace\service-template\src\main\java\com\haufe\demo\config\MessageProperties.java
D:\haufe\workspace\service-template\src\main\java\com\haufe\demo\repository\AppRepository.java
D:\haufe\workspace\service-template\src\main\java\com\haufe\demo\service\AppService.java
D:\haufe\workspace\service-template\src\main\java\com\haufe\demo\web\dto\result\AppResult.java
D:\haufe\workspace\service-template\src\main\java\com\haufe\demo\config\H2DataSourceConfig.java
D:\haufe\workspace\service-template\src\main\java\com\haufe\demo\constants\IConstants.java
D:\haufe\workspace\service-template\src\main\java\com\haufe\demo\web\dto\result\AbstractResult.java
D:\haufe\workspace\service-template\src\main\java\com\haufe\demo\web\dto\result\AbstractPageResult.java
D:\haufe\workspace\service-template\src\main\java\com\haufe\demo\web\exception\handler\ApiSubError.java
D:\haufe\workspace\service-template\src\main\java\com\haufe\demo\web\security\WebSecurity.java
D:\haufe\workspace\service-template\src\main\java\com\haufe\demo\utils\AppUtils.java
D:\haufe\workspace\service-template\src\main\java\com\haufe\demo\web\exception\handler\BadRequestException.java
D:\haufe\workspace\service-template\src\main\java\com\haufe\demo\web\controller\AppController.java
D:\haufe\workspace\service-template\src\main\java\com\haufe\demo\web\exception\handler\ApiError.java
D:\haufe\workspace\service-template\src\main\java\com\haufe\demo\web\controller\AbstractController.java
D:\haufe\workspace\service-template\src\main\java\com\haufe\demo\utils\DateUtils.java
D:\haufe\workspace\service-template\src\main\java\com\haufe\demo\web\controller\VersionController.java
D:\haufe\workspace\service-template\src\main\java\com\haufe\demo\exception\AppException.java
D:\haufe\workspace\service-template\src\main\java\com\haufe\demo\web\exception\handler\ApiValidationError.java
D:\haufe\workspace\service-template\src\main\java\com\haufe\demo\repository\AppStreamRepository.java
D:\haufe\workspace\service-template\src\main\java\com\haufe\demo\SpringbootApplication.java
D:\haufe\workspace\service-template\src\main\java\com\haufe\demo\web\exception\handler\RestExceptionHandler.java
D:\haufe\workspace\service-template\src\main\java\com\haufe\demo\enums\AppEnums.java
D:\haufe\workspace\service-template\src\main\java\com\haufe\demo\repository\stream\StreamingRepository.java
