com\haufe\demo\SpringbootApplicationTest.class
com\haufe\demo\integration\AbstractAppIT.class
com\haufe\demo\integration\service\AppServiceIT.class
com\haufe\demo\utils\MockDataUtils.class
com\haufe\demo\web\security\WebSecurityTest.class
com\haufe\demo\integration\controller\AppControllerIT.class
com\haufe\demo\service\AppServiceTest.class
com\haufe\demo\web\controller\AppControllerTest.class
